Position	O_Codon	M_Codon	MFE	Delta_MFE	Transcript_ID
0	AUG	AUG	-69.000	0.000	ENST00000396344
3	UGU	UGC	-69.100	-0.100	ENST00000396344
3	UGU	UGU	-69.000	0.000	ENST00000396344
6	CAA	CAA	-69.000	0.000	ENST00000396344
6	CAA	CAG	-72.100	-3.100	ENST00000396344
9	GGC	GGA	-70.700	-1.700	ENST00000396344
9	GGC	GGC	-69.000	0.000	ENST00000396344
9	GGC	GGG	-71.600	-2.600	ENST00000396344
9	GGC	GGU	-71.400	-2.400	ENST00000396344
12	AAU	AAC	-68.900	0.100	ENST00000396344
12	AAU	AAU	-69.000	0.000	ENST00000396344
15	UCC	AGC	-69.500	-0.500	ENST00000396344
15	UCC	AGU	-69.000	0.000	ENST00000396344
15	UCC	UCA	-69.000	0.000	ENST00000396344
15	UCC	UCC	-69.000	0.000	ENST00000396344
15	UCC	UCG	-71.200	-2.200	ENST00000396344
15	UCC	UCU	-69.100	-0.100	ENST00000396344
18	AAA	AAA	-69.000	0.000	ENST00000396344
18	AAA	AAG	-71.400	-2.400	ENST00000396344
21	GGU	GGA	-69.100	-0.100	ENST00000396344
21	GGU	GGC	-69.600	-0.600	ENST00000396344
21	GGU	GGG	-74.100	-5.100	ENST00000396344
21	GGU	GGU	-69.000	0.000	ENST00000396344
24	GAA	GAA	-69.000	0.000	ENST00000396344
24	GAA	GAG	-69.600	-0.600	ENST00000396344
27	AAC	AAC	-69.000	0.000	ENST00000396344
27	AAC	AAU	-69.000	0.000	ENST00000396344
30	GCA	GCA	-69.000	0.000	ENST00000396344
30	GCA	GCC	-70.000	-1.000	ENST00000396344
30	GCA	GCG	-69.100	-0.100	ENST00000396344
30	GCA	GCU	-71.100	-2.100	ENST00000396344
33	GCC	GCA	-68.500	0.500	ENST00000396344
33	GCC	GCC	-69.000	0.000	ENST00000396344
33	GCC	GCG	-71.900	-2.900	ENST00000396344
33	GCC	GCU	-69.100	-0.100	ENST00000396344
36	AAC	AAC	-69.000	0.000	ENST00000396344
36	AAC	AAU	-67.200	1.800	ENST00000396344
39	UGG	UGG	-69.000	0.000	ENST00000396344
42	CUC	CUA	-67.500	1.500	ENST00000396344
42	CUC	CUC	-69.000	0.000	ENST00000396344
42	CUC	CUG	-71.500	-2.500	ENST00000396344
42	CUC	CUU	-67.900	1.100	ENST00000396344
42	CUC	UUA	-65.500	3.500	ENST00000396344
42	CUC	UUG	-69.200	-0.200	ENST00000396344
45	ACG	ACA	-68.200	0.800	ENST00000396344
45	ACG	ACC	-69.100	-0.100	ENST00000396344
45	ACG	ACG	-69.000	0.000	ENST00000396344
45	ACG	ACU	-70.400	-1.400	ENST00000396344
48	GCA	GCA	-69.000	0.000	ENST00000396344
48	GCA	GCC	-72.100	-3.100	ENST00000396344
48	GCA	GCG	-69.000	0.000	ENST00000396344
48	GCA	GCU	-69.800	-0.800	ENST00000396344
51	AAG	AAA	-69.000	0.000	ENST00000396344
51	AAG	AAG	-69.000	0.000	ENST00000396344
54	AGU	AGC	-69.100	-0.100	ENST00000396344
54	AGU	AGU	-69.000	0.000	ENST00000396344
54	AGU	UCA	-67.900	1.100	ENST00000396344
54	AGU	UCC	-67.900	1.100	ENST00000396344
54	AGU	UCG	-69.400	-0.400	ENST00000396344
54	AGU	UCU	-69.700	-0.700	ENST00000396344
57	GGU	GGA	-67.100	1.900	ENST00000396344
57	GGU	GGC	-71.700	-2.700	ENST00000396344
57	GGU	GGG	-71.800	-2.800	ENST00000396344
57	GGU	GGU	-69.000	0.000	ENST00000396344
60	CGG	AGA	-68.000	1.000	ENST00000396344
60	CGG	AGG	-68.800	0.200	ENST00000396344
60	CGG	CGA	-67.200	1.800	ENST00000396344
60	CGG	CGC	-68.500	0.500	ENST00000396344
60	CGG	CGG	-69.000	0.000	ENST00000396344
60	CGG	CGU	-68.500	0.500	ENST00000396344
63	AAG	AAA	-69.000	0.000	ENST00000396344
63	AAG	AAG	-69.000	0.000	ENST00000396344
66	AAG	AAA	-68.500	0.500	ENST00000396344
66	AAG	AAG	-69.000	0.000	ENST00000396344
69	CGC	AGA	-71.800	-2.800	ENST00000396344
69	CGC	AGG	-70.900	-1.900	ENST00000396344
69	CGC	CGA	-68.700	0.300	ENST00000396344
69	CGC	CGC	-69.000	0.000	ENST00000396344
69	CGC	CGG	-69.300	-0.300	ENST00000396344
69	CGC	CGU	-71.200	-2.200	ENST00000396344
72	UGC	UGC	-69.000	0.000	ENST00000396344
72	UGC	UGU	-69.400	-0.400	ENST00000396344
75	CCC	CCA	-69.000	0.000	ENST00000396344
75	CCC	CCC	-69.000	0.000	ENST00000396344
75	CCC	CCG	-69.000	0.000	ENST00000396344
75	CCC	CCU	-69.700	-0.700	ENST00000396344
78	UAC	UAC	-69.000	0.000	ENST00000396344
78	UAC	UAU	-68.700	0.300	ENST00000396344
81	ACG	ACA	-67.900	1.100	ENST00000396344
81	ACG	ACC	-71.300	-2.300	ENST00000396344
81	ACG	ACG	-69.000	0.000	ENST00000396344
81	ACG	ACU	-69.100	-0.100	ENST00000396344
84	AAG	AAA	-68.000	1.000	ENST00000396344
84	AAG	AAG	-69.000	0.000	ENST00000396344
87	CAC	CAC	-69.000	0.000	ENST00000396344
87	CAC	CAU	-67.900	1.100	ENST00000396344
90	CAG	CAA	-66.200	2.800	ENST00000396344
90	CAG	CAG	-69.000	0.000	ENST00000396344
93	ACA	ACA	-69.000	0.000	ENST00000396344
93	ACA	ACC	-68.100	0.900	ENST00000396344
93	ACA	ACG	-68.600	0.400	ENST00000396344
93	ACA	ACU	-68.100	0.900	ENST00000396344
96	CUG	CUA	-68.800	0.200	ENST00000396344
96	CUG	CUC	-67.100	1.900	ENST00000396344
96	CUG	CUG	-69.000	0.000	ENST00000396344
96	CUG	CUU	-71.000	-2.000	ENST00000396344
96	CUG	UUA	-66.800	2.200	ENST00000396344
96	CUG	UUG	-67.000	2.000	ENST00000396344
99	GAG	GAA	-67.900	1.100	ENST00000396344
99	GAG	GAG	-69.000	0.000	ENST00000396344
102	CUG	CUA	-69.200	-0.200	ENST00000396344
102	CUG	CUC	-70.900	-1.900	ENST00000396344
102	CUG	CUG	-69.000	0.000	ENST00000396344
102	CUG	CUU	-69.000	0.000	ENST00000396344
102	CUG	UUA	-66.100	2.900	ENST00000396344
102	CUG	UUG	-72.700	-3.700	ENST00000396344
105	GAG	GAA	-69.700	-0.700	ENST00000396344
105	GAG	GAG	-69.000	0.000	ENST00000396344
108	AAG	AAA	-68.700	0.300	ENST00000396344
108	AAG	AAG	-69.000	0.000	ENST00000396344
111	GAG	GAA	-69.000	0.000	ENST00000396344
111	GAG	GAG	-69.000	0.000	ENST00000396344
114	UUU	UUC	-71.300	-2.300	ENST00000396344
114	UUU	UUU	-69.000	0.000	ENST00000396344
117	CUG	CUA	-68.100	0.900	ENST00000396344
117	CUG	CUC	-70.100	-1.100	ENST00000396344
117	CUG	CUG	-69.000	0.000	ENST00000396344
117	CUG	CUU	-68.800	0.200	ENST00000396344
117	CUG	UUA	-69.100	-0.100	ENST00000396344
117	CUG	UUG	-68.100	0.900	ENST00000396344
120	UUC	UUC	-69.000	0.000	ENST00000396344
120	UUC	UUU	-69.700	-0.700	ENST00000396344
123	AAU	AAC	-69.000	0.000	ENST00000396344
123	AAU	AAU	-69.000	0.000	ENST00000396344
126	AUG	AUG	-69.000	0.000	ENST00000396344
129	UAC	UAC	-69.000	0.000	ENST00000396344
129	UAC	UAU	-70.200	-1.200	ENST00000396344
132	CUU	CUA	-68.500	0.500	ENST00000396344
132	CUU	CUC	-71.300	-2.300	ENST00000396344
132	CUU	CUG	-69.100	-0.100	ENST00000396344
132	CUU	CUU	-69.000	0.000	ENST00000396344
132	CUU	UUA	-68.500	0.500	ENST00000396344
132	CUU	UUG	-70.400	-1.400	ENST00000396344
135	ACU	ACA	-69.200	-0.200	ENST00000396344
135	ACU	ACC	-69.000	0.000	ENST00000396344
135	ACU	ACG	-70.900	-1.900	ENST00000396344
135	ACU	ACU	-69.000	0.000	ENST00000396344
138	CGA	AGA	-69.200	-0.200	ENST00000396344
138	CGA	AGG	-71.800	-2.800	ENST00000396344
138	CGA	CGA	-69.000	0.000	ENST00000396344
138	CGA	CGC	-71.700	-2.700	ENST00000396344
138	CGA	CGG	-73.200	-4.200	ENST00000396344
138	CGA	CGU	-70.300	-1.300	ENST00000396344
141	GAG	GAA	-66.400	2.600	ENST00000396344
141	GAG	GAG	-69.000	0.000	ENST00000396344
144	CGG	AGA	-66.900	2.100	ENST00000396344
144	CGG	AGG	-67.500	1.500	ENST00000396344
144	CGG	CGA	-66.900	2.100	ENST00000396344
144	CGG	CGC	-65.600	3.400	ENST00000396344
144	CGG	CGG	-69.000	0.000	ENST00000396344
144	CGG	CGU	-65.200	3.800	ENST00000396344
147	CGC	AGA	-70.300	-1.300	ENST00000396344
147	CGC	AGG	-71.200	-2.200	ENST00000396344
147	CGC	CGA	-69.000	0.000	ENST00000396344
147	CGC	CGC	-69.000	0.000	ENST00000396344
147	CGC	CGG	-74.400	-5.400	ENST00000396344
147	CGC	CGU	-69.300	-0.300	ENST00000396344
150	CUA	CUA	-69.000	0.000	ENST00000396344
150	CUA	CUC	-70.000	-1.000	ENST00000396344
150	CUA	CUG	-69.100	-0.100	ENST00000396344
150	CUA	CUU	-69.000	0.000	ENST00000396344
150	CUA	UUA	-69.700	-0.700	ENST00000396344
150	CUA	UUG	-71.700	-2.700	ENST00000396344
153	GAG	GAA	-69.000	0.000	ENST00000396344
153	GAG	GAG	-69.000	0.000	ENST00000396344
156	AUU	AUA	-69.000	0.000	ENST00000396344
156	AUU	AUC	-69.000	0.000	ENST00000396344
156	AUU	AUU	-69.000	0.000	ENST00000396344
159	AGC	AGC	-69.000	0.000	ENST00000396344
159	AGC	AGU	-69.200	-0.200	ENST00000396344
159	AGC	UCA	-68.500	0.500	ENST00000396344
159	AGC	UCC	-67.100	1.900	ENST00000396344
159	AGC	UCG	-68.100	0.900	ENST00000396344
159	AGC	UCU	-71.500	-2.500	ENST00000396344
162	CGC	AGA	-68.300	0.700	ENST00000396344
162	CGC	AGG	-67.800	1.200	ENST00000396344
162	CGC	CGA	-67.100	1.900	ENST00000396344
162	CGC	CGC	-69.000	0.000	ENST00000396344
162	CGC	CGG	-67.800	1.200	ENST00000396344
162	CGC	CGU	-68.100	0.900	ENST00000396344
165	AGC	AGC	-69.000	0.000	ENST00000396344
165	AGC	AGU	-70.100	-1.100	ENST00000396344
165	AGC	UCA	-73.000	-4.000	ENST00000396344
165	AGC	UCC	-73.400	-4.400	ENST00000396344
165	AGC	UCG	-73.700	-4.700	ENST00000396344
165	AGC	UCU	-74.300	-5.300	ENST00000396344
168	GUC	GUA	-71.600	-2.600	ENST00000396344
168	GUC	GUC	-69.000	0.000	ENST00000396344
168	GUC	GUG	-71.600	-2.600	ENST00000396344
168	GUC	GUU	-68.800	0.200	ENST00000396344
171	CAC	CAC	-69.000	0.000	ENST00000396344
171	CAC	CAU	-69.100	-0.100	ENST00000396344
174	CUC	CUA	-69.000	0.000	ENST00000396344
174	CUC	CUC	-69.000	0.000	ENST00000396344
174	CUC	CUG	-70.000	-1.000	ENST00000396344
174	CUC	CUU	-69.000	0.000	ENST00000396344
174	CUC	UUA	-69.000	0.000	ENST00000396344
174	CUC	UUG	-70.200	-1.200	ENST00000396344
177	ACG	ACA	-66.400	2.600	ENST00000396344
177	ACG	ACC	-66.200	2.800	ENST00000396344
177	ACG	ACG	-69.000	0.000	ENST00000396344
177	ACG	ACU	-68.800	0.200	ENST00000396344
180	GAC	GAC	-69.000	0.000	ENST00000396344
180	GAC	GAU	-67.800	1.200	ENST00000396344
183	AGA	AGA	-69.000	0.000	ENST00000396344
183	AGA	AGG	-69.900	-0.900	ENST00000396344
183	AGA	CGA	-69.800	-0.800	ENST00000396344
183	AGA	CGC	-71.600	-2.600	ENST00000396344
183	AGA	CGG	-70.400	-1.400	ENST00000396344
183	AGA	CGU	-69.400	-0.400	ENST00000396344
186	CAA	CAA	-69.000	0.000	ENST00000396344
186	CAA	CAG	-70.700	-1.700	ENST00000396344
189	GUG	GUA	-68.400	0.600	ENST00000396344
189	GUG	GUC	-71.000	-2.000	ENST00000396344
189	GUG	GUG	-69.000	0.000	ENST00000396344
189	GUG	GUU	-69.200	-0.200	ENST00000396344
192	AAA	AAA	-69.000	0.000	ENST00000396344
192	AAA	AAG	-71.600	-2.600	ENST00000396344
195	AUC	AUA	-67.800	1.200	ENST00000396344
195	AUC	AUC	-69.000	0.000	ENST00000396344
195	AUC	AUU	-68.600	0.400	ENST00000396344
198	UGG	UGG	-69.000	0.000	ENST00000396344
201	UUU	UUC	-71.900	-2.900	ENST00000396344
201	UUU	UUU	-69.000	0.000	ENST00000396344
204	CAG	CAA	-67.900	1.100	ENST00000396344
204	CAG	CAG	-69.000	0.000	ENST00000396344
207	AAC	AAC	-69.000	0.000	ENST00000396344
207	AAC	AAU	-69.500	-0.500	ENST00000396344
210	CGC	AGA	-67.300	1.700	ENST00000396344
210	CGC	AGG	-67.400	1.600	ENST00000396344
210	CGC	CGA	-67.300	1.700	ENST00000396344
210	CGC	CGC	-69.000	0.000	ENST00000396344
210	CGC	CGG	-69.900	-0.900	ENST00000396344
210	CGC	CGU	-67.300	1.700	ENST00000396344
213	AGG	AGA	-67.000	2.000	ENST00000396344
213	AGG	AGG	-69.000	0.000	ENST00000396344
213	AGG	CGA	-67.000	2.000	ENST00000396344
213	AGG	CGC	-67.000	2.000	ENST00000396344
213	AGG	CGG	-70.100	-1.100	ENST00000396344
213	AGG	CGU	-67.500	1.500	ENST00000396344
216	AUG	AUG	-69.000	0.000	ENST00000396344
219	AAA	AAA	-69.000	0.000	ENST00000396344
219	AAA	AAG	-69.000	0.000	ENST00000396344
222	CUG	CUA	-68.900	0.100	ENST00000396344
222	CUG	CUC	-67.300	1.700	ENST00000396344
222	CUG	CUG	-69.000	0.000	ENST00000396344
222	CUG	CUU	-67.300	1.700	ENST00000396344
222	CUG	UUA	-72.800	-3.800	ENST00000396344
222	CUG	UUG	-72.900	-3.900	ENST00000396344
225	AAG	AAA	-68.400	0.600	ENST00000396344
225	AAG	AAG	-69.000	0.000	ENST00000396344
228	AAA	AAA	-69.000	0.000	ENST00000396344
228	AAA	AAG	-69.000	0.000	ENST00000396344
231	AUG	AUG	-69.000	0.000	ENST00000396344
234	AAU	AAC	-69.000	0.000	ENST00000396344
234	AAU	AAU	-69.000	0.000	ENST00000396344
237	CGA	AGA	-69.000	0.000	ENST00000396344
237	CGA	AGG	-69.400	-0.400	ENST00000396344
237	CGA	CGA	-69.000	0.000	ENST00000396344
237	CGA	CGC	-68.400	0.600	ENST00000396344
237	CGA	CGG	-70.300	-1.300	ENST00000396344
237	CGA	CGU	-69.300	-0.300	ENST00000396344
240	GAA	GAA	-69.000	0.000	ENST00000396344
240	GAA	GAG	-69.000	0.000	ENST00000396344
243	AAC	AAC	-69.000	0.000	ENST00000396344
243	AAC	AAU	-68.100	0.900	ENST00000396344
246	CGG	AGA	-68.700	0.300	ENST00000396344
246	CGG	AGG	-68.700	0.300	ENST00000396344
246	CGG	CGA	-69.000	0.000	ENST00000396344
246	CGG	CGC	-68.900	0.100	ENST00000396344
246	CGG	CGG	-69.000	0.000	ENST00000396344
246	CGG	CGU	-69.000	0.000	ENST00000396344
249	AUC	AUA	-70.000	-1.000	ENST00000396344
249	AUC	AUC	-69.000	0.000	ENST00000396344
249	AUC	AUU	-69.000	0.000	ENST00000396344
252	CGG	AGA	-66.300	2.700	ENST00000396344
252	CGG	AGG	-67.600	1.400	ENST00000396344
252	CGG	CGA	-66.000	3.000	ENST00000396344
252	CGG	CGC	-65.500	3.500	ENST00000396344
252	CGG	CGG	-69.000	0.000	ENST00000396344
252	CGG	CGU	-67.700	1.300	ENST00000396344
255	GAG	GAA	-68.400	0.600	ENST00000396344
255	GAG	GAG	-69.000	0.000	ENST00000396344
258	CUC	CUA	-66.500	2.500	ENST00000396344
258	CUC	CUC	-69.000	0.000	ENST00000396344
258	CUC	CUG	-67.700	1.300	ENST00000396344
258	CUC	CUU	-67.200	1.800	ENST00000396344
258	CUC	UUA	-66.900	2.100	ENST00000396344
258	CUC	UUG	-69.500	-0.500	ENST00000396344
261	ACA	ACA	-69.000	0.000	ENST00000396344
261	ACA	ACC	-69.000	0.000	ENST00000396344
261	ACA	ACG	-69.000	0.000	ENST00000396344
261	ACA	ACU	-69.000	0.000	ENST00000396344
264	GCC	GCA	-70.000	-1.000	ENST00000396344
264	GCC	GCC	-69.000	0.000	ENST00000396344
264	GCC	GCG	-69.300	-0.300	ENST00000396344
264	GCC	GCU	-69.000	0.000	ENST00000396344
267	AAC	AAC	-69.000	0.000	ENST00000396344
267	AAC	AAU	-66.800	2.200	ENST00000396344
270	UUU	UUC	-71.200	-2.200	ENST00000396344
270	UUU	UUU	-69.000	0.000	ENST00000396344
273	AAU	AAC	-68.400	0.600	ENST00000396344
273	AAU	AAU	-69.000	0.000	ENST00000396344
276	UUU	UUC	-71.600	-2.600	ENST00000396344
276	UUU	UUU	-69.000	0.000	ENST00000396344
279	UCC	AGC	-68.400	0.600	ENST00000396344
279	UCC	AGU	-70.100	-1.100	ENST00000396344
279	UCC	UCA	-68.400	0.600	ENST00000396344
279	UCC	UCC	-69.000	0.000	ENST00000396344
279	UCC	UCG	-68.400	0.600	ENST00000396344
279	UCC	UCU	-68.400	0.600	ENST00000396344
282	UGA	UAA	-68.400	0.600	ENST00000396344
282	UGA	UAG	-68.400	0.600	ENST00000396344
282	UGA	UGA	-69.000	0.000	ENST00000396344
